label,1,2,3,4,5,6,7,8,9,10,11,12,13,14,15,16,17,18,19,20,21,22,23,24,25,26,27,28,29,30,31,32,33,34,35,36,37,38,39,40,41,42,43,44,45,46,47,48,49,50,51,52
Gecko,40.004789,40.188113,39.954755,40.05908,39.885438,39.988802,39.90628,39.707153,39.692964,40.165546,40.211184,40.007647,39.874983,39.9467,39.876716,39.966454,39.860731,40.161995,40.078514,39.773508,39.829552,39.792304,40.43941,40.180929,40.198308,40.232573,40.646467,40.351389,40.293457,40.861876,40.473363,40.722622,40.51469,40.54917,41.609689,40.970533,40.631898,40.360692,40.368045,40.386932,40.258914,40.25597,40.207555,40.254916,40.234796,40.249842,40.100335,40.03629,40.311053,40.594742,40.360943,40.627684
MSIE 8.0,0.0,0.0,0.933112,4.974216,5.922887,7.20547,8.264689,9.22261,10.414912,11.682714,12.685902,13.207158,13.746617,14.058168,14.382346,14.73709,14.932986,15.152148,15.641524,15.902136,16.277422,16.470245,16.688002,17.013301,17.355682,17.543343,17.763511,18.1972,18.399993,18.597865,18.835275,19.120333,19.418278,19.440035,19.193785,10.996218,20.435636,20.661701,20.784451,20.983866,21.374681,21.559982,21.726099,21.850699,22.121217,22.343503,22.544111,22.477284,22.456107,22.590989,22.836826,22.484145
MSIE 7.0,30.31045,29.506694,29.123041,28.451208,27.79944,26.658191,25.637607,24.816444,23.838021,22.533197,21.635503,21.355184,20.970979,20.602288,20.268842,20.028948,19.844233,19.551414,19.233389,19.041592,18.735279,18.63528,18.175103,18.228955,18.042749,17.819263,17.393124,17.298714,17.103831,16.539287,16.596765,16.247854,16.131949,16.051685,15.166598,22.586278,15.275747,15.179749,15.073291,14.853487,14.574038,14.350546,14.209303,14.166746,13.939023,13.778616,13.77716,13.837072,13.532576,13.149825,13.093416,12.529705
WebKit,3.020699,3.094951,3.10065,3.254865,3.272392,3.340037,3.516732,3.64261,3.704384,3.854281,3.859707,4.074875,4.166072,4.363994,4.431696,4.482886,4.618587,4.653183,4.72427,4.711499,4.868562,4.97875,5.105159,5.125346,5.161876,5.312731,5.523976,5.534868,5.640702,5.873007,5.877023,6.049186,6.095605,6.374361,6.999781,4.68486,6.879604,7.085269,7.257888,7.459014,7.666163,7.789458,8.109533,8.151072,8.217992,8.394132,8.536938,8.822956,9.198795,9.422617,9.396059,9.828793
MSIE 6.0,18.362658,18.773902,18.714109,16.106647,15.980753,15.67922,15.653075,15.60503,15.354972,14.725656,14.532671,14.347001,14.190053,13.985178,13.925799,13.617332,13.55437,13.24249,12.982953,13.23928,12.876972,12.778314,12.154077,12.132733,11.965499,11.830989,11.235979,11.303122,11.210024,10.626517,10.826763,10.397742,10.434008,10.139946,9.047151,13.032019,9.339239,9.349396,9.187214,8.957086,8.860584,8.848901,8.566486,8.305933,8.208531,7.900498,7.694671,7.477566,7.1374,6.870835,7.082687,7.064275
Opera 9,6.65077,6.614077,6.489425,6.48829,6.48179,6.51781,6.47918,6.472191,6.471287,6.518946,6.532592,6.4881,6.52142,6.555587,6.612227,6.678778,6.689974,6.787683,6.900746,6.888598,6.966268,6.908429,7.007362,6.886016,6.852428,6.838773,7.028298,6.908397,6.92567,7.077307,6.958592,7.031514,6.98157,7.015393,7.535138,7.101346,7.019966,6.938097,6.888546,6.919374,6.812703,6.743578,6.731784,6.795578,6.787576,6.838783,6.851096,6.836337,6.863965,6.871797,6.734476,6.959153
unknown,0.128658,0.126564,0.126055,0.125659,0.127366,0.126675,0.126796,0.130582,0.127445,0.134235,0.140558,0.143631,0.140062,0.139248,0.141514,0.141278,0.144696,0.136331,0.127946,0.128742,0.135743,0.131715,0.130737,0.129997,0.132094,0.131686,0.129945,0.127581,0.153448,0.156261,0.16209,0.164353,0.164836,0.174312,0.193524,0.143914,0.170231,0.17212,0.177304,0.176159,0.184663,0.185414,0.184685,0.20816,0.231118,0.228602,0.225197,0.239961,0.244254,0.241105,0.241351,0.248995
Mozilla 5.x,0.059807,0.061793,0.061568,0.063016,0.060868,0.062325,0.063475,0.061065,0.063319,0.068884,0.064818,0.06174,0.069888,0.056776,0.056579,0.052624,0.053213,0.052324,0.054211,0.054318,0.054332,0.056161,0.054804,0.054862,0.052367,0.054537,0.055085,0.054455,0.052975,0.052604,0.055495,0.055687,0.053096,0.052687,0.061136,0.052799,0.055552,0.062454,0.069536,0.077438,0.080425,0.080461,0.079692,0.085428,0.084241,0.086974,0.087359,0.091641,0.090346,0.093247,0.090905,0.09567
Opera 8,0.095425,0.092101,0.088711,0.090584,0.089701,0.087164,0.084171,0.082951,0.080152,0.080525,0.080558,0.079385,0.07908,0.079479,0.078324,0.076972,0.077235,0.074515,0.073326,0.072445,0.073627,0.072869,0.0729,0.069159,0.065522,0.064465,0.06292,0.058887,0.059927,0.058473,0.057654,0.057423,0.055343,0.056281,0.055635,0.083293,0.053431,0.055279,0.054869,0.053227,0.051713,0.051006,0.050755,0.051063,0.049022,0.048747,0.049909,0.050463,0.048735,0.049254,0.048876,0.04931
MSIE 5.0,0.097305,0.097008,0.098916,0.092963,0.093351,0.090532,0.087715,0.090056,0.087667,0.081404,0.090039,0.084169,0.084914,0.078698,0.082495,0.079305,0.082721,0.071073,0.068855,0.072584,0.070912,0.069352,0.067278,0.068874,0.064149,0.065658,0.059817,0.061911,0.057029,0.05668,0.056208,0.05562,0.053241,0.051678,0.046084,0.073494,0.051288,0.050655,0.050339,0.048323,0.049985,0.048175,0.04986,0.048583,0.049134,0.049456,0.053353,0.049617,0.04447,0.043044,0.043628,0.040123
KHTML,0.032675,0.031307,0.032062,0.032209,0.031028,0.032749,0.032286,0.0305,0.034822,0.031193,0.034062,0.032672,0.036242,0.027637,0.028027,0.030161,0.027251,0.025643,0.028666,0.028067,0.027412,0.025245,0.025264,0.025198,0.025682,0.024187,0.024287,0.024907,0.023414,0.022934,0.026467,0.022899,0.022622,0.022887,0.022523,0.02304,0.02122,0.019337,0.024962,0.024114,0.022594,0.024604,0.023416,0.02265,0.020942,0.024725,0.021552,0.024895,0.019948,0.021854,0.021267,0.021833
MSIE 5.5,0.050733,0.049766,0.050185,0.049104,0.04836,0.047708,0.046736,0.046813,0.047067,0.041978,0.047235,0.042599,0.042919,0.038441,0.042168,0.03998,0.043045,0.034874,0.033177,0.035816,0.035029,0.033612,0.032758,0.033921,0.034252,0.038036,0.034656,0.03676,0.037449,0.037499,0.035803,0.035813,0.036168,0.03304,0.023713,0.041952,0.02729,0.027682,0.027296,0.025047,0.026599,0.026209,0.025757,0.024553,0.023653,0.023809,0.02605,0.023701,0.021434,0.02084,0.021244,0.018631
Mozilla 4.x,0.02419,0.023022,0.022041,0.022361,0.022535,0.022109,0.021667,0.023184,0.022775,0.026095,0.032754,0.028435,0.031079,0.026399,0.031477,0.02911,0.031912,0.022412,0.01959,0.019956,0.018646,0.018379,0.018421,0.018349,0.019645,0.017621,0.016802,0.016635,0.018089,0.016761,0.016791,0.016519,0.01722,0.01743,0.024131,0.028355,0.020915,0.019352,0.019176,0.018525,0.019193,0.018646,0.018827,0.018325,0.017525,0.017663,0.017718,0.017872,0.017938,0.01707,0.015994,0.01923
Opera 4,0.112476,0.116663,0.120245,0.124873,0.122814,0.09491,0.051704,0.043634,0.036946,0.032749,0.028165,0.024244,0.022484,0.020674,0.019376,0.017561,0.01664,0.015364,0.01472,0.01299,0.012451,0.011704,0.011637,0.011095,0.009677,0.009685,0.009278,0.008852,0.008334,0.00781,0.0075,0.00726,0.007356,0.006941,0.007247,0.026023,0.006152,0.006079,0.005366,0.005827,0.005542,0.005366,0.005227,0.004915,0.004686,0.004538,0.004355,0.004538,0.004374,0.004456,0.004376,0.004383
MSIE 4.x,0.995762,1.16901,1.030018,0.007852,0.007387,0.007226,0.006623,0.006816,0.006582,0.007052,0.009441,0.008182,0.008618,0.007575,0.008804,0.008118,0.00933,0.00643,0.005883,0.006486,0.00611,0.005742,0.0058,0.006374,0.006996,0.005409,0.005155,0.005372,0.005414,0.005303,0.004997,0.005221,0.004714,0.004721,0.004708,0.138448,0.004047,0.004199,0.00418,0.004144,0.004113,0.004014,0.003957,0.004214,0.003926,0.003745,0.003872,0.004073,0.003542,0.003702,0.003575,0.003936
Opera 6,0.046728,0.048299,0.048481,0.050421,0.047899,0.0329,0.015257,0.012291,0.010973,0.009812,0.008788,0.008677,0.008494,0.007858,0.007166,0.007363,0.006791,0.006657,0.006527,0.006352,0.006329,0.00701,0.007018,0.007254,0.006983,0.006927,0.006756,0.006777,0.006246,0.005543,0.005555,0.006238,0.005664,0.00608,0.005772,0.012222,0.005016,0.005276,0.004975,0.004903,0.005477,0.005183,0.004606,0.004592,0.00426,0.004035,0.003765,0.003044,0.002513,0.002054,0.001957,0.001984
Opera 7,0.005693,0.005276,0.005477,0.005414,0.004888,0.004934,0.00478,0.004809,0.004196,0.003972,0.003531,0.004371,0.003954,0.003679,0.004042,0.004071,0.0038,0.003918,0.00413,0.00426,0.00397,0.003732,0.003129,0.00354,0.003216,0.003111,0.003149,0.003197,0.003048,0.003119,0.002728,0.002825,0.002569,0.002504,0.0026,0.00405,0.001912,0.001818,0.001883,0.001787,0.001719,0.001668,0.001589,0.001706,0.001516,0.001538,0.001785,0.001841,0.001539,0.001496,0.001604,0.001465
MSIE 3.x,0.000771,0.000848,0.000808,0.000892,0.000782,0.000861,0.00077,0.000761,0.000815,0.000944,0.001396,0.001049,0.001267,0.00114,0.001371,0.001137,0.00134,0.000834,0.000972,0.000756,0.000715,0.000727,0.000739,0.001066,0.000893,0.00056,0.000509,0.000512,0.000562,0.000715,0.000619,0.000479,0.000627,0.000555,0.000592,0.000846,0.000608,0.000648,0.00054,0.000546,0.000626,0.00059,0.000626,0.00059,0.000654,0.000634,0.000558,0.000603,0.000693,0.000667,0.000646,0.000568
MSIE,0.000198,0.000231,0.000196,0.000204,0.000206,0.000256,0.000272,0.000245,0.000281,0.000264,0.000242,0.000269,0.000166,0.000196,0.000278,0.000244,0.000298,0.000349,0.000273,0.000242,0.000272,0.000151,0.000163,0.000407,0.00035,0.000184,0.000113,0.000153,0.000136,0.000155,0.000098,0.00015,0.000144,0.000102,0.000081,0.000145,0.000117,0.000109,0.000079,0.000068,0.000053,0.000093,0.000119,0.000122,0.000068,0.000059,0.000087,0.000085,0.000124,0.000069,0.000071,0.000059
Mozilla 3.x,0.000188,0.000335,0.000116,0.00011,0.000098,0.000091,0.000132,0.000193,0.000318,0.000502,0.000797,0.000519,0.000662,0.000261,0.000732,0.000531,0.000749,0.000275,0.000246,0.000289,0.000255,0.000175,0.000136,0.001996,0.001232,0.000182,0.000118,0.000191,0.000181,0.000172,0.000153,0.000187,0.000204,0.000148,0.000066,0.000099,0.000074,0.000046,0.000039,0.0001,0.000188,0.000078,0.00007,0.000099,0.000064,0.000067,0.000081,0.000087,0.000125,0.000286,0.000057,0.000021
